org\glassfish\samples\rest\chat\resources\ChatResource$2.class
org\glassfish\samples\rest\chat\resources\ChatResource$1.class
org\glassfish\samples\rest\chat\resources\ChatResource$AsyncResponseWrapper.class
org\glassfish\samples\rest\chat\resources\ChatApplication.class
org\glassfish\samples\rest\chat\resources\ChatResource.class
